459286 591373 470
324069 387016 441
253356 912322 525
636064 864913 525
374270 919727 525
262791 84707 443
839168 431511 525
817204 542816 509
658035 214391 509
653569 739756 504
817180 112647 509
536967 579190 452
174154 33181 383
860240 220625 525
691415 483136 509
312467 784627 509
973471 512232 525
141547 989385 525
275800 87208 443
344420 794280 509
492323 147953 449
525144 628128 509
685595 908846 525
108940 132910 349
627086 209218 509
764794 265094 509
413640 558240 470
497828 264063 449
522121 419592 470
445647 691635 509
747328 253008 509
459507 581016 470
339618 993451 525
803024 375980 509
666351 868717 525
278628 171483 443
523212 111454 470
487981 811344 509
203765 887518 525
855851 504691 525
590274 663618 509
413664 702368 509
691348 655144 442
861685 444132 525
482624 277715 449
147400 174106 383
295000 52313 443
661564 974248 525
422935 170529 449
192627 825307 509
342435 192892 443
317301 347798 441
774833 742553 468
409003 198081 443
538155 49899 470
296615 177464 443
866792 122292 525
334969 398565 441
876705 803436 525
23640 753912 509
520388 66801 470
303322 901608 525
127656 130176 344
369309 259892 441
631704 364455 509
893584 764998 525
896598 728894 525
975466 961451 458
790404 591925 509
793009 962929 525
411360 874745 525
882325 341049 525
606653 113756 470
657167 927762 525
132940 62682 354
76214 861409 525
750129 152630 509
650722 385660 509
16140 126572 354
57251 540520 470
388671 215971 443
545635 720928 509
78340 626426 509
894475 607001 525
47120 513027 470
417059 100730 449
583318 393981 470
240363 323254 407
212372 352431 443
217304 205457 386
82567 515748 470
493562 47394 449
767732 213792 509
585938 37127 470
874595 147033 525
729038 410766 509
241245 525790 470
636419 147377 509
594773 59965 470
445383 790738 509
687015 95101 509
26876 289570 443
766311 302268 509
998314 725899 525
470387 114429 449
209672 496340 449
725903 739241 424
315874 530900 470
330042 600386 470
522789 737999 509
447972 574736 470
337743 921780 525
341204 434955 449
709932 469580 509
317237 847596 525
627455 675420 442
188257 724074 509
649946 706951 504
571643 18079 470
166408 589905 470
705353 335861 509
103106 281973 443
713397 796388 468
56171 479192 449
570218 204142 470
20885 363368 443
588769 966866 525
702394 750229 504
928657 460551 525
351912 400859 436
921070 201613 525
266474 76742 443
970429 248740 525
296330 780888 509
342502 312809 384
648949 954231 525
421102 61826 449
859732 62004 525
268477 913319 525
117051 44279 354
201525 704945 509
732784 263810 509
805329 770622 468
890010 285385 525
823139 67270 509
18056 729852 509
323675 332357 384
149539 916812 525
305818 923411 525
693966 911335 525
400055 18514 443
798652 972036 525
145303 810842 509
609437 984340 525
763568 516683 509
820171 391319 509
792251 704977 468
943438 605205 525
422713 55750 449
42374 216814 386
283252 438950 449
588115 800223 509
747115 389657 509
609270 63107 470
241056 270197 407
838541 567543 525
531127 729342 509
848361 711997 525
53016 517424 470
703535 212814 509
784702 965796 525
303332 23347 443
818497 594992 509
808126 262096 509
703288 735957 504
452182 285452 449
769728 711098 468
591659 304305 470
867022 656604 525
449025 731859 509
925178 935760 476
347740 815603 509
960484 707696 525
780549 349341 509
530701 277487 470
664480 294484 509
853718 714487 525
689627 148786 509
32943 648520 509
322325 524808 470
206889 200875 373
849136 264725 525
112455 654192 509
223750 357215 443
93274 859582 525
501330 856750 525
688340 269512 509
276289 507457 449
960443 181613 525
620260 99020 470
523665 418812 470
846529 435877 525
726454 499405 509
597586 167760 470
562497 301703 470
5881 616898 470
747413 985753 525
336040 978827 525
696281 905173 525
630636 189434 509
365270 386562 423
985970 557417 525
131239 119385 344
406237 416921 449
242020 683731 509
821752 116174 509
968082 108495 525
569886 737303 509
618866 335518 470
390988 718792 509
938648 434528 525
320521 532121 470
991860 996852 365
966218 590037 525
