208297 135716 383
907021 962769 507
500112 721011 509
680978 102176 509
62775 653045 509
77040 226495 386
798497 794713 468
598223 927215 525
245256 963932 525
804875 624184 509
210614 997789 525
297099 577351 470
360848 261862 441
564537 600143 434
577730 944503 525
808442 196452 509
910199 840486 476
446786 666560 509
953039 533095 525
524727 985681 525
144024 223760 386
405413 203300 443
458419 592771 470
512604 917374 525
379596 312843 441
687104 776960 504
258892 815729 509
590042 376053 470
437835 905124 525
334491 746457 509
513272 945396 525
662067 320537 509
886817 586438 525
953198 421993 525
442982 60809 449
621131 13502 470
390924 918069 525
459807 442454 387
145538 429756 449
254062 565245 470
25488 841726 525
473980 365163 449
988357 657021 525
96752 997306 525
177397 201208 365
10868 231592 443
485739 797874 509
847078 452785 525
677322 803651 504
184315 110805 383
920693 745121 525
505519 952173 525
172806 112429 383
369396 179526 443
302684 116605 443
682184 479691 509
997782 763725 525
665317 307964 509
549350 728893 509
712463 727460 411
90879 849872 525
105413 996180 525
258987 279902 407
983362 716101 525
63242 447602 449
579469 939035 525
43350 562482 470
421885 325428 449
126972 151823 375
278943 443921 449
816313 923345 525
921522 9634 525
670468 300763 509
564296 599904 434
547560 584411 434
293443 226759 443
673624 469531 509
264580 994392 525
285493 509980 449
980293 183525 525
478582 663947 509
486572 828162 509
497937 230117 449
911282 164188 525
683681 274348 509
875538 607744 525
316617 112717 443
919404 786280 525
640831 88164 509
220369 447004 449
694013 283700 509
604647 134347 470
254020 681648 509
273583 689690 509
355890 846933 525
631909 150422 509
431578 543075 470
857925 283017 525
223689 887904 525
106204 575302 470
590222 794515 509
529453 226346 470
131100 873289 525
297969 292467 358
853743 311304 525
741899 800636 468
275608 660098 509
286226 248626 407
397817 652764 509
293799 674666 509
948235 129548 525
492184 70152 449
664750 472808 509
404829 879282 525
860374 960253 507
742018 53798 509
917730 941457 507
7291 608034 470
303823 252042 407
135113 227 354
314774 658964 509
43793 765392 509
458061 81728 449
544965 999755 525
975414 418077 525
74112 438763 449
160193 661839 509
490316 209462 449
629078 363172 509
796025 654386 504
512469 273611 470
252568 509370 449
368743 618532 470
614237 579068 434
283212 406297 441
374286 920373 525
923779 574406 525
329786 589347 470
472240 678973 509
170067 89025 383
843710 425178 525
724417 473875 509
456099 31474 449
708336 815642 468
878339 170748 525
544618 504662 470
994691 599882 525
283499 992484 525
438817 880483 525
926173 775454 525
346972 210744 443
772715 215260 509
489913 861179 525
728014 193274 509
406151 287999 441
949573 655517 525
847162 702327 525
862745 696632 525
975858 592593 525
318180 932491 525
263338 134389 443
904095 552231 525
482561 9629 449
457095 343842 449
414861 448660 418
958131 743194 525
477280 627139 509
781542 825399 468
145504 587313 470
905670 936889 476
873869 330493 525
881700 880946 295
439842 341688 449
182176 124429 383
621917 580535 447
475789 244166 449
283236 414033 449
795869 85263 509
26042 346222 443
566510 814798 509
882149 653988 525
11006 385088 443
725408 107492 509
378049 772337 509
826490 492462 509
666923 115544 509
851567 378583 525
939712 329609 525
612556 804178 509
589407 480249 470
793157 408981 509
581695 129417 470
165305 91507 383
302101 107644 443
726565 388490 509
515726 332274 470
487892 153918 449
431652 411772 418
66525 683278 509
961391 408834 525
196813 938093 525
193405 75977 383
353696 20554 443
