521859 742876 509
828590 932773 525
361210 24092 443
173379 773080 509
349808 263711 441
721360 864167 525
37951 682478 509
774205 446598 509
390007 258864 441
460741 495723 444
366627 375521 392
606634 550093 434
208820 720654 509
736875 798888 468
830430 629234 504
734570 215321 509
171059 388411 443
748549 510438 509
338300 913985 525
331755 891268 525
962580 637607 525
608023 48338 470
569547 774136 509
454656 318926 449
692676 658475 442
851402 822593 525
152621 656811 509
676599 253586 509
52402 909339 525
217603 58609 386
293671 443590 449
847946 493724 525
243201 150475 443
296071 161449 443
754868 935377 525
710888 409066 509
857396 937061 476
580484 508982 470
651802 3154 509
541889 468492 470
351002 789562 509
805310 808771 406
816487 756264 468
556788 62662 470
588761 684227 509
925744 984423 507
618893 275924 470
459898 698172 509
477547 585314 470
580115 403549 470
310302 839581 525
763361 866234 525
728094 218875 509
737168 318776 509
111867 642597 509
131018 709882 509
284413 12825 443
496707 650173 509
25382 460405 449
74903 895513 525
689219 491044 509
781720 339968 509
138247 559736 470
701378 405332 509
423899 834029 509
940051 646737 525
765560 421892 509
870199 809466 525
415031 367365 449
727303 608377 509
832463 573354 509
145523 61076 375
148587 171010 383
354719 349394 379
544887 102515 470
758134 387039 509
86652 145126 375
668830 484301 509
368309 480296 449
853310 631579 525
193082 880945 525
687352 893360 525
946126 732244 525
830444 530487 509
964833 149891 525
542964 497445 470
479580 578945 470
539776 960023 525
450851 856340 525
506239 494681 426
445050 507479 444
309904 254696 407
442200 711547 509
684415 36556 509
355469 137534 443
926320 157184 525
496631 397400 449
194774 202821 360
222427 607942 470
833242 323830 509
897022 497077 525
502436 304995 449
370085 342845 441
717464 161892 509
708086 165829 509
776621 375389 509
933026 835642 525
761156 919945 525
103877 202916 383
67055 626565 509
973008 280407 525
549729 743160 509
351619 537548 470
254298 759103 509
349990 276972 441
456728 880761 525
371949 437649 449
33333 980090 525
601662 35649 470
423360 206461 449
360870 362431 366
843288 179389 525
100375 828382 509
163510 922955 525
646625 571288 509
403588 944949 525
729768 923998 525
149608 418394 449
381500 247066 441
244001 939239 525
825154 680322 504
763900 454540 509
371059 617061 470
85368 559961 470
485324 394793 449
273722 840883 525
357549 380415 423
371941 591412 470
820241 230218 509
48145 722316 509
719911 423496 509
217733 215881 386
36775 371477 443
242920 630048 509
81706 743206 509
962293 472838 525
285278 711559 509
594190 880429 525
497993 661309 509
740745 455255 509
352147 235294 441
940129 163411 525
871552 490761 525
515484 13378 470
381622 997231 525
745102 680739 504
803885 964011 525
280077 215580 443
177315 298111 443
937662 421820 525
718006 338571 509
415824 161196 449
101804 955018 525
536798 606247 452
200487 63730 383
713506 36749 509
583111 939097 525
522806 860358 525
328385 354301 441
55582 433461 449
804387 911718 525
527749 551610 452
295903 100518 443
872941 721432 525
858434 194680 525
10478 492823 449
222823 969373 525
766258 326738 509
363154 220669 443
318283 341491 384
903093 823724 525
516695 378604 470
567094 230364 470
481139 506353 426
744818 296355 509
534567 771954 509
96530 125188 354
82051 842979 525
261357 822521 509
408476 903517 525
46522 300128 443
180923 631555 509
95201 116816 354
860492 361297 525
918366 717961 525
863073 227066 525
582875 99870 470
246225 576222 470
904212 264932 525
460966 233441 449
14582 27786 308
777345 587550 509
158723 179417 370
763323 75212 509
300151 716279 509
594838 792112 509
928332 404389 525
244543 213429 443
60001 799495 509
517809 593135 452
522139 652801 509
417375 789981 509
977940 589628 525
799491 161298 509
257124 539740 470
133366 809642 509
276136 561925 470
183623 622486 470
870699 418427 525
773042 728337 468
60469 608267 470
364109 672658 509
637345 651685 416
411731 182586 449
486332 528 449
108826 33902 354
410433 93334 449
796466 409982 509
566211 987137 525
482961 232276 449
433020 979370 525
66390 364212 443
297292 578269 470
33917 76454 340
674438 888246 525
956588 694394 525
