570524 201716 470
849699 3565 525
250507 773109 509
436681 901667 525
176408 654962 509
894217 964934 507
57403 503363 449
443378 748263 509
608319 320649 470
355614 388026 423
57542 926552 525
312603 631399 509
870764 571160 525
983202 118254 525
535905 918226 525
502704 794873 509
17200 285758 443
261550 161558 443
353285 182649 443
516798 227991 470
384479 980099 525
166386 482385 449
835774 505700 509
673572 836851 504
232647 250967 381
804262 145267 509
573778 655973 509
604994 313267 470
849718 456345 525
195359 207772 373
15269 987167 525
904079 562443 525
254835 579398 470
965495 983815 458
455325 356177 449
965645 650210 525
711692 261137 509
306434 858875 525
799232 797662 375
746619 228516 509
441071 417033 418
691887 486663 509
258426 765926 509
515361 91654 470
194008 852259 525
759315 337784 509
628102 942978 525
317859 580 443
590723 689985 509
642834 650228 385
403692 799230 509
842997 416744 525
134121 832457 509
786195 178654 509
524442 806964 509
894790 424164 525
414637 956346 525
203930 411564 449
355482 62518 443
329487 388421 441
410084 171499 449
857164 374235 525
969174 349813 525
589248 271167 470
903570 574859 525
891703 762787 525
668845 324063 509
946189 934859 507
546352 262328 470
825952 176260 509
662992 432153 509
688713 825209 504
173311 266444 443
919269 550544 525
707328 37848 509
611437 101030 470
782824 656804 504
890318 580349 525
661971 839183 525
313872 892490 525
662620 25948 509
274418 610930 470
361374 860018 525
749025 405573 509
816948 323893 509
497952 263421 449
244896 935824 525
931519 62538 525
86121 208634 383
969356 970769 458
325083 891244 525
93752 141267 354
380262 681022 509
508174 668005 509
77823 366816 443
372146 147736 443
398004 340509 441
137428 898342 525
14282 522194 470
850417 848733 357
333975 886422 525
42932 326582 443
164095 866387 525
286239 383174 441
334520 545925 470
594258 738791 509
957664 599626 525
976360 283681 525
546740 390289 470
798093 874173 525
146747 273655 443
320465 863724 525
666220 807744 504
390480 915238 525
631954 591697 509
707085 222446 509
146321 871564 525
401069 257791 441
891989 194528 525
12983 432688 449
749359 49957 509
769957 842766 525
883870 615776 525
290839 913356 525
663223 93810 509
412356 326488 449
525283 524721 302
572175 626691 509
937205 339435 525
240640 61685 443
812269 492004 509
829608 403345 509
452850 135333 449
635381 49275 509
660865 413823 509
442092 779255 509
485411 780065 509
527124 399003 470
759997 394024 509
948126 493101 525
741458 797271 468
679214 930315 525
239538 310947 407
11016 728435 509
862896 145224 525
668373 47119 509
212187 853981 525
845454 228741 525
401760 848652 525
205240 832528 509
195901 788276 509
157888 944323 525
406320 366685 436
383636 293521 441
95950 640939 509
116890 669711 509
348010 716123 509
611394 826719 509
79400 48761 351
406512 622972 470
26503 805064 509
409497 429817 449
51131 639753 509
855373 144014 525
97429 359336 443
437237 56647 449
478709 674170 509
736582 256132 509
965543 395118 525
481783 279557 449
401983 676956 509
830989 304121 509
877717 854882 432
139712 232659 443
845458 226783 525
785572 628205 504
246159 959479 525
3196 174995 383
285412 584868 470
756271 503658 509
337326 614280 470
978611 244254 525
297479 189886 443
705346 908119 525
296254 901681 525
728664 917369 525
297704 15916 443
972592 531740 525
815325 407604 509
785380 817974 468
141673 547944 470
996430 880966 507
143873 425081 449
795850 157964 509
338324 121398 443
193738 832741 509
565943 878230 525
178774 295215 443
44177 975385 525
239395 7649 443
903120 563526 525
574641 914164 525
139658 253057 443
86218 445843 449
791592 144536 509
120528 440803 449
424962 228897 449
458726 811102 509
890773 716610 525
90354 49470 351
741632 172001 509
272024 30515 443
924936 347647 525
405239 690209 509
235191 874969 525
818990 682857 504
100777 147302 375
488053 839611 525
20937 373134 443
486736 57511 449
748401 324898 509
252845 433480 449
361460 468389 449
449135 586424 470
414704 13602 449
823187 649847 504
657940 157138 509
309121 224337 443
472901 24512 449
596501 34954 470
890777 530853 525
137404 619568 470
611082 980536 525
781036 240846 509
752910 116134 509
548561 876339 525
267485 796520 509
525118 329217 470
971946 359943 525
952969 36163 525
394501 59540 443
360297 62254 443
672210 247480 509
515435 956387 525
311734 932268 525
733067 431610 509
354843 741158 509
282050 586717 470
869327 896088 445
791415 505666 509
608738 241251 470
111457 360341 443
332132 755994 509
13682 566524 470
850635 499456 525
60537 881393 525
210556 689431 509
871908 390901 525
98967 679231 509
448053 381919 449
721394 860593 525
239109 837658 509
141861 150210 375
195191 253157 443
716259 661146 504
