925231 112545
176241 875693
80451 529804
226079 970094
312866 734568
451080 270406
507990 54531
239825 601302
670408 812167
997756 745351
619875 820812
705604 63670
276508 324591
720912 268645
227471 253649
259618 558380
283666 428633
419194 770511
71757 474189
73893 9592
745342 136809
547865 959934
677015 99139
22712 760574
611534 374671
137291 438947
842356 372458
922542 21994
747037 873814
724024 920823
68431 830214
292217 8021
894188 224323
679980 859845
284642 735385
357238 648501
355616 733017
345846 725389
113531 976849
853614 71447
379345 108757
90462 279505
149589 98277
185898 936547
183148 580262
877147 877288
840330 502183
863738 619004
57908 279374
961917 483228
683568 655224
746099 639573
544769 892704
518409 987875
868142 706543
304093 135517
191620 798503
199826 622681
873475 694694
869121 699549
52697 134038
779691 893671
47499 219418
316730 23013
461738 680712
760037 991760
416706 445190
478866 38663
187239 115696
597726 471749
18039 126225
570620 918065
164475 450839
475522 187978
579620 498646
376213 976028
139039 558666
259893 25493
621824 998486
653407 153620
113275 532300
332020 376966
784227 733369
842051 794612
913301 73139
430939 305606
431735 301588
27844 695275
205081 30771
548563 937944
508579 197009
123591 849062
584776 684250
610688 745744
858480 892093
864357 261091
414456 888080
469360 927786
61693 61657
285618 874893
482865 378414
99276 258977
966901 435256
468037 44092
624121 753732
188750 874356
993923 269297
554649 966345
597608 479043
548807 94175
137967 199338
937578 13338
973800 617180
254313 835122
642643 659422
336363 482549
699109 711610
510102 576038
16427 419717
955261 283572
819770 2228
190838 810438
480607 749441
550288 33381
988487 549352
585375 799066
24342 406508
87889 50083
997210 476703
8651 205555
923509 661096
416470 671986
596698 856838
617663 768550
774368 892709
102273 76180
816997 823610
242350 910698
384069 136552
75714 895507
229779 305715
787151 39460
629430 659019
812820 14658
500085 671540
780177 911652
780428 582685
629290 722484
658158 461279
33311 102575
301771 985009
418270 734435
157948 356685
891901 720792
80650 808353
465641 790362
438966 853195
689364 391891
608290 423575
876742 493284
871938 584992
45780 414911
393660 473949
228994 505799
515700 423018
809485 928470
899060 52322
967490 930148
960334 440941
140178 460559
372639 304699
127609 352793
475877 423730
779132 72271
146226 11286
568787 457210
660447 869086
946912 766368
251267 776353
205817 691503
136420 258524
447771 767027
688157 355522
755429 968274
622809 584339
253701 703816
274173 556982
437803 654032
507606 49610
805642 363367
563687 152457
629602 716210
481160 187454
257708 76732
994681 881177
513195 860873
864144 66882
849713 602470
872388 259548
940890 678617
278273 740567
723098 414252
851299 557853
881079 562456
772699 658818
95602 958136
47285 335465
244311 24772
918178 840368
477707 991366
201773 146985
883170 898274
99030 262693
918696 639335
497031 994575
440531 936584
98334 438852
219749 353467
652702 80874
792335 383491
68072 330587
34528 722706
627101 297098
392248 92975
986124 513177
