569850 572196
433213 19560
2365 617148
83760 232571
439052 22269
927448 207983
589244 332933
139747 720066
227066 285577
47039 207175
484587 469959
835750 493992
856406 306152
146566 322873
799988 131114
563485 129047
707806 710689
116173 777866
38032 654056
259142 122532
242798 110074
212559 355197
888774 433725
243945 711159
632422 614755
794061 502166
595483 937182
450768 686562
8561 738339
178102 365998
104518 874980
693795 956134
933110 451392
633185 8859
132615 552322
981469 347429
796337 558947
538235 176697
796816 178477
362334 500744
267283 176416
757798 106733
157188 146970
700844 150968
79571 850057
220434 916795
502782 213986
576704 131956
662064 52424
348238 799136
846411 671420
846289 578310
606629 370637
520208 464304
614355 186270
754668 369057
89467 229268
905657 893162
759364 869823
613663 866271
10141 717546
62432 161827
811546 230747
904338 875040
528861 630270
825703 491378
132821 91362
621044 143064
33753 265175
627350 76816
170652 981433
971039 361163
472036 616763
614681 488718
198775 81886
348216 714151
457370 856444
346255 517109
211703 103630
591253 473792
756857 154124
244944 152521
966760 953896
249412 282481
28080 31506
622390 710386
221655 856186
267303 676784
479940 949134
6693 780521
190660 221940
908758 567691
680422 379589
616988 307793
708688 9315
421282 908787
366212 866038
298808 811729
474300 646920
416334 683397
681102 232782
481661 555060
434364 261902
866139 275065
594855 144848
899289 319710
355433 997068
279976 148847
589065 872746
899290 825798
348958 63652
456245 658721
604415 425089
433935 797298
516909 233683
180811 965076
909005 892336
437497 622010
32070 790631
421032 304794
717233 750574
899262 203193
570999 28189
992042 447592
849208 113165
407178 682417
473956 308948
259473 2619
251448 211432
908271 41012
728239 772091
437595 437766
174235 197010
130402 326380
922417 636257
434454 406656
959814 836945
972935 976612
408458 364212
679212 495416
133932 325438
718346 176463
151215 388117
157068 521937
605773 335574
696517 205067
754356 813854
217921 698432
538699 15468
878895 941071
649112 124643
4846 256391
820169 599564
68576 633103
496821 353828
954799 666891
561853 913207
449087 983791
752786 698640
461212 192474
456139 296218
635014 751842
705113 748460
883875 759120
117999 95185
688788 364215
884063 53919
911589 685727
425631 468278
575163 511873
157894 162810
936178 152559
390366 874593
802659 846513
804259 879043
709641 402135
649867 734455
119274 698289
430423 842871
644590 648109
893658 347901
291619 419470
686803 267126
661956 462966
124268 612480
606698 3629
59118 606631
472496 328910
905040 376143
180422 738302
950778 712839
886194 204084
375277 254370
703835 357825
362800 228525
649365 871318
931094 854740
583931 899674
381345 455773
577973 902733
710428 778062
408765 99061
250247 762913
702334 731404
779287 206623
260339 317795
420690 222726
422316 33199
468377 470990
815108 919781
87489 183626
