36900 870872 525
677063 59800 509
471153 779596 509
572073 117170 470
973835 702417 525
332144 397020 441
998556 597615 525
389024 949851 525
690178 796506 504
600101 913097 525
915890 123600 525
878341 366190 525
231669 562969 470
340011 762887 509
66057 270247 443
735020 288316 509
576302 211540 470
387664 902298 525
454167 301230 449
74910 550404 470
987589 832166 525
826593 608343 509
489465 704467 509
319928 210456 443
736162 4159 509
517166 257249 470
841403 874221 432
327479 33613 443
838437 868402 419
125847 73365 354
536494 266421 470
735806 647949 504
945390 504507 525
761194 306609 509
93209 225157 386
40506 962005 525
527566 206341 470
379982 450142 449
241518 40091 443
191374 65049 383
17754 132159 354
534977 963416 525
412869 771743 509
717051 40853 509
430723 630603 509
807943 842771 525
615841 642017 509
264095 581829 470
113607 123673 349
92733 8802 351
526511 419936 470
562 591867 470
158013 510298 449
883815 416166 525
918893 28061 525
35795 946410 525
666789 971820 525
289306 147873 443
555140 454480 470
159544 650175 509
133791 906986 525
932940 579739 525
996264 706085 525
420514 384044 449
571287 361651 470
979615 773059 525
583353 800008 509
498291 680008 509
359711 929644 525
683923 511331 509
938111 697032 525
905653 435726 525
347978 661931 509
439944 506581 444
249192 858442 525
265881 777222 509
598201 809528 509
847773 870618 419
372503 453896 449
561656 633230 509
845260 654186 525
916715 955072 507
175583 861012 525
278271 378522 441
100082 448601 449
97949 459108 449
445774 650764 509
313033 538812 470
413041 683015 509
296868 27985 443
237024 502167 449
362228 820980 509
598798 430202 470
949990 876036 507
171586 59718 383
84622 872650 525
402985 623973 470
919048 290357 525
930299 171161 525
954024 545833 525
144129 687777 509
847247 207478 525
26985 833533 509
175789 765421 509
252538 329925 407
878429 875642 432
281714 299371 389
151943 727208 509
179418 893294 525
36487 114691 354
84845 541634 470
564710 189477 470
181027 283373 443
258420 612835 470
472350 379664 449
60738 438392 449
267414 22487 443
280394 270347 389
147231 281417 443
298657 366786 441
821132 897256 525
324031 314670 371
408634 589865 470
19856 640338 509
855779 115316 525
31795 654705 509
554395 896455 525
676190 519353 509
498048 826583 509
982627 752036 525
32985 264326 443
62701 424799 449
890090 881796 445
961872 392076 525
26337 225415 386
137385 170275 383
205558 317963 443
239815 655417 509
275242 250524 407
162460 553849 470
882194 149778 525
354403 985037 525
518730 460009 470
248883 161215 443
203480 709967 509
507355 555855 470
526114 621910 452
50818 207813 383
522085 478118 470
809374 103053 509
786166 211238 509
266903 9848 443
132044 330259 443
817683 218048 509
484546 806021 509
899564 298954 525
275397 591717 470
356204 540296 470
940381 69979 525
737047 200157 509
818542 181222 509
748229 246367 509
398237 973088 525
476494 894925 525
123752 402087 443
765756 703238 504
239551 414772 449
474456 37195 449
792117 388938 509
818687 329925 509
384059 840238 525
444304 338478 449
596873 761264 509
631617 398557 509
319091 593016 470
381752 199823 443
10304 305867 443
284 750221 509
996020 258656 525
877085 171436 525
732164 29838 509
630049 56329 509
893939 117809 525
81098 509110 449
418803 498154 444
458488 860654 525
645657 339618 509
567363 973451 525
201521 708325 509
749250 291649 509
175644 815681 509
382408 348796 423
841685 386623 525
887007 599450 525
902431 868327 445
178677 695641 509
757717 773922 468
418810 504770 444
146839 296435 443
15004 524376 470
377058 134790 443
723669 145071 509
981859 664512 525
38952 791252 509
562515 445138 470
201223 751990 509
643263 585712 509
526215 171779 470
692049 744052 504
484268 988715 525
490508 722395 509
536324 280686 470
694114 655165 442
207958 549644 470
245508 254094 350
737008 993872 525
625777 573523 447
746078 867394 525
751939 735789 424
320527 301499 384
317920 213915 443
62756 659715 509
362793 104997 443
822098 844593 525
942186 234526 525
14360 945394 525
52249 783813 509
444799 56448 449
175482 919053 525
193670 792713 509
403966 565405 470
135254 665259 509
340413 691377 509
200832 157035 370
601708 926542 525
