358263 733475 509
250134 366143 441
158958 784343 509
739307 741986 393
127402 957109 525
813403 145341 509
119690 144608 375
336509 200296 443
44161 939703 525
123783 680003 509
438493 576355 470
174126 690936 509
311811 956089 525
288767 117245 443
8709 898150 525
456559 847666 525
513714 973788 525
942613 562973 525
150889 157454 383
955809 119490 525
745105 164086 509
772114 645096 504
454990 297896 449
610606 410007 470
345236 556843 470
323626 741605 509
620702 15567 470
723606 811083 468
959301 465689 525
366434 712803 509
677358 390978 509
882981 944359 507
161022 630125 509
16889 63130 340
517195 870819 525
83117 720410 509
486830 951051 525
779743 629449 504
57492 212691 383
765167 35013 509
746361 32931 509
290031 406894 441
937130 607083 525
132352 151954 375
35001 993997 525
905710 302006 525
808362 634293 504
180531 252243 443
632548 921256 525
907041 219396 525
940626 631410 525
991307 167877 525
371423 739747 509
185605 473717 449
149564 809733 509
635663 655162 416
591919 237722 470
484837 340110 449
189091 813404 509
395481 358032 436
803028 603417 509
945056 99844 525
465087 972947 525
747807 36734 509
609989 834171 509
898637 443838 525
631450 602142 509
80895 194804 383
444442 570940 470
447471 202147 449
858986 333663 525
11906 923972 525
618511 208108 470
256244 247741 363
602316 680078 509
739302 432321 509
743951 560691 509
308452 705434 509
402363 436343 449
44176 140806 354
911173 651678 525
689032 198759 509
397986 649944 509
195221 657958 509
836996 513030 509
711225 803134 468
98479 559955 470
858095 507426 525
379982 420819 449
797671 859192 525
821499 331515 509
155478 112623 375
781085 219345 509
304761 242306 407
767757 845484 525
961507 703555 525
39386 671047 509
617603 13588 470
105440 378482 443
441097 854831 525
282777 48256 443
741179 279059 509
881518 708173 525
629348 164725 509
395594 365920 436
252190 820586 509
956663 939544 414
962686 849963 507
994828 116234 525
852811 972309 507
409863 23539 443
918056 772107 525
466007 525998 470
81360 857167 525
767752 271388 509
515883 196570 470
52016 920789 525
442824 369972 449
647818 220800 509
874342 844859 432
696122 28905 509
385454 451787 449
939378 816417 525
976637 412971 525
369275 936650 525
457782 879698 525
624914 27137 470
326144 703322 509
297823 872674 525
773149 653222 504
596269 524931 452
825523 472547 509
223560 61672 386
793514 1398 509
512110 467824 470
381134 278439 441
779872 453034 509
242443 196849 443
961727 715303 525
602541 64989 470
673268 738498 504
744617 304923 509
466871 769709 509
463101 15829 449
376297 941295 525
324665 271947 389
947848 825969 525
773093 660731 504
308113 618808 470
852927 405452 525
22615 740612 509
534815 902302 525
470018 457639 444
668224 727742 504
524291 960764 525
295420 948442 525
830473 529531 509
85850 771361 509
946364 123712 525
906898 713993 525
246860 378 443
322460 46978 443
320616 114427 443
470634 265650 449
974807 559099 525
416805 987463 525
654110 486543 509
183943 575190 470
922122 38997 525
195519 183091 360
740153 153777 509
273226 555313 470
489291 59416 449
720349 114844 509
34639 244891 443
953637 913947 507
530506 406242 470
132656 814873 509
992854 848174 507
99904 691089 509
239347 312691 407
846812 576741 525
289912 803866 509
771609 389638 509
887594 867989 445
49773 206301 383
394499 4599 443
730561 364959 509
390717 105576 443
826916 582567 509
668231 645363 442
842868 768413 525
699942 806213 504
814946 793036 468
295973 896670 525
451033 93082 449
877726 380939 525
197299 781126 509
198192 557573 470
14799 946077 525
244075 894869 525
235071 476956 449
834789 111558 509
194096 22396 383
553690 552794 346
228535 797654 509
524153 328859 470
842209 664754 525
21844 698655 509
621515 342547 470
704693 305033 509
406567 715585 509
763359 943037 525
811384 284415 509
482560 463088 413
208656 688719 509
44762 309769 443
110544 798632 509
619558 419403 470
554655 736601 509
713528 77401 509
114932 496526 449
773830 252797 509
